   It {2} has {3} not {3} but {3} the {3} only {4} five {4} also {4} leap {4} into {4} survived {8} centuries {9} remaining {9} unchanged {9} electronic {10} typesetting {11} essentially{11} 
 It {2} in {2} of {2} of {2} was {3} the {3} the {3} and {3} with {4} more {4} with {4} like {4} Lorem {5} Ipsum {5} Aldus {5} Lorem {5} Ipsum {5} sheets {6} release {7} desktop {7} Letraset {8} passages {8} recently {8} software {8} versions {8} PageMaker {9} including {9} containing {10} publishing {10} popularised{11} 
   a {1} a {1} a {1} It {2} is {2} be {2} by {2} of {2} at {2} the {3} its {3} long {4} fact {4} that {4} will {4} page {4} when {4} reader {6} layout {6} content {7} looking {7} readable {8} distracted {10} established{11} 
 a {1} of {2} is {2} it {2} or {2} of {2} as {2} to {2} it {2} The {3} has {3} that {4} more {4} less {4} here {4} here {4} look {4} like {4} point {5} using {5} Ipsum {5} using {5} normal {6} making {6} letters {7} opposed {7} Content {7} content {7} English {7} readable {8} distribution{12} 
   a {1} a {1} It {2} is {2} an {2} be {2} of {2} at {2} its {3} fact {4} that {4} will {4} page {4} when {4} reader {6} layout {6} looking {7} established{11} 
   Bye{3} 
